<?xml version="1.0" encoding="UTF-8"?>
<svg width="12px" height="12px" viewBox="0 0 12 12" version="1.1" xmlns="http://www.w3.org/2000/svg" xmlns:xlink="http://www.w3.org/1999/xlink">
    <!-- Generator: Sketch 62 (91390) - https://sketch.com -->
    <title>Icons/arrow down</title>
    <desc>Created with Sketch.</desc>
    <g id="Icons/arrow-down" stroke="none" stroke-width="1" fill="none" fill-rule="evenodd">
        <path d="M3.15568608,4.21356186 C2.90544182,3.94348529 2.48363844,3.92740802 2.21356186,4.17765229 C1.94348529,4.42789655 1.92740802,4.84969994 2.17765229,5.11977651 L5.5109831,8.7172798 C5.77481877,9.00202492 6.22518123,9.00202492 6.4890169,8.7172798 L9.82234771,5.11977651 C10.072592,4.84969994 10.0565147,4.42789655 9.78643814,4.17765229 C9.51636156,3.92740802 9.09455818,3.94348529 8.84431392,4.21356186 L6,7.28329278 L3.15568608,4.21356186 Z" id="Arrows" fill="#000000" fill-rule="nonzero"></path>
    </g>
</svg>