<?xml version="1.0" encoding="UTF-8"?>
<svg width="24px" height="24px" viewBox="0 0 24 24" version="1.1" xmlns="http://www.w3.org/2000/svg" xmlns:xlink="http://www.w3.org/1999/xlink">
    <!-- Generator: Sketch 62 (91390) - https://sketch.com -->
    <title>Icons/arrow white</title>
    <desc>Created with Sketch.</desc>
    <g id="Icons/arrow-white" stroke="none" stroke-width="1" fill="none" fill-rule="evenodd">
        <rect id="Rectangle" stroke="#EAEAF2" fill="#D8D8D8" opacity="0" x="0.5" y="0.5" width="23" height="23"></rect>
        <path d="M14.5736898,7.15512385 C14.7825668,6.94829205 15.1211765,6.94829205 15.33,7.15512385 L15.33,7.15512385 L19.843369,11.6254451 C19.8745923,11.6563785 19.901147,11.6901845 19.9230333,11.726004 C19.9315399,11.7399833 19.9397045,11.7548593 19.9471497,11.7701436 C19.9521956,11.7804814 19.9567885,11.7907773 19.9610343,11.8011796 C19.9674848,11.8168972 19.9732826,11.8333061 19.9782666,11.8500604 C19.9817484,11.8619731 19.9847836,11.8736967 19.9874082,11.8854919 C19.995613,11.9218377 20,11.9604212 20,12.0000199 L19.9961725,11.9366706 C19.9977404,11.9496399 19.9988249,11.9626555 19.999426,11.9756888 L20,12.0000199 C20,12.0082781 19.9998091,12.0164922 19.9994315,12.0246581 C19.9988249,12.0373707 19.9977404,12.050386 19.9961725,12.0633549 C19.9940172,12.0814183 19.9910582,12.0985107 19.9872942,12.1153034 C19.9847836,12.1263259 19.9817484,12.1380488 19.9783024,12.1496775 C19.9732826,12.1667133 19.9674848,12.1831212 19.9609185,12.199139 C19.9567885,12.2092382 19.9521956,12.2195329 19.9472556,12.2297036 C19.9397045,12.245157 19.9315399,12.2600328 19.9226995,12.2744574 C19.901147,12.3098169 19.8745923,12.3436162 19.843369,12.3745417 L19.843369,12.3745417 L15.33,16.8448629 C15.225615,16.9482523 15.0887166,17 14.9518717,17 C14.8150267,17 14.6781283,16.9482523 14.5737433,16.8449159 C14.3649198,16.6380311 14.3649198,16.3026511 14.5737433,16.0958193 L14.5737433,16.0958193 L18.174,12.529 L4.53475936,12.5296788 C4.26899465,12.5296788 4.04845134,12.337562 4.00700032,12.0859224 L4,12.0000199 C4,11.7074892 4.23946524,11.4703609 4.53475936,11.4703609 L4.53475936,11.4703609 L18.173,11.47 L14.5736898,7.90422045 C14.3880689,7.72032288 14.3674444,7.43489819 14.5118162,7.22847624 Z" id="Combined-Shape" fill="#FFFFFF" fill-rule="nonzero"></path>
    </g>
</svg>