<?xml version="1.0" encoding="UTF-8"?>
<svg width="26px" height="26px" viewBox="0 0 26 26" version="1.1" xmlns="http://www.w3.org/2000/svg" xmlns:xlink="http://www.w3.org/1999/xlink">
    <!-- Generator: Sketch 62 (91390) - https://sketch.com -->
    <title>Icons/Menu/menu-close</title>
    <desc>Created with Sketch.</desc>
    <g id="Icons/Menu/menu-close" stroke="none" stroke-width="1" fill="none" fill-rule="evenodd">
        <path d="M12.3480137,4.1282362 C11.9793328,5.75772859 11.7550305,10.0065913 11.6777131,11.6755033 C10.0041721,11.7522658 5.75076045,11.9778746 4.11721102,12.3496593 C4.05127982,12.3496593 4,12.6537623 4,12.9981681 C4,13.3425738 4.05127982,13.6246935 4.11721102,13.6430129 C5.75201405,14.0153339 10.0065809,14.2421592 11.681376,14.3208328 C11.7631054,15.9952762 11.9935515,20.2491531 12.3699908,21.8827555 C12.3699908,21.9450416 12.6593555,22 13,22 C13.3406445,22 13.6190207,21.9450416 13.6300092,21.8827555 C14.005791,20.2477933 14.2362276,15.9927586 14.318624,14.3171689 C15.9936514,14.2338571 20.2481322,14.0033655 21.882789,13.6283574 C21.9487202,13.6283574 22,13.3352461 22,12.9981681 C22,12.6610901 21.9487202,12.3753065 21.882789,12.3643149 L21.8644748,12.3643149 C20.2369226,11.9910761 15.9898949,11.7605982 14.3222869,11.6755033 C14.2455463,10.001484 14.020002,5.74759691 13.6483235,4.11358063 C13.6263464,4.04763059 13.3443074,4 13,4 C12.6556926,4 12.3736536,4.05129448 12.3516765,4.11358063 L12.3480137,4.1282362 Z" id="Path" fill="#000000" fill-rule="nonzero" transform="translate(13.000000, 13.000000) rotate(-315.000000) translate(-13.000000, -13.000000) "></path>
    </g>
</svg>