<?xml version="1.0" encoding="UTF-8"?>
<svg width="26px" height="26px" viewBox="0 0 26 26" version="1.1" xmlns="http://www.w3.org/2000/svg" xmlns:xlink="http://www.w3.org/1999/xlink">
    <!-- Generator: Sketch 62 (91390) - https://sketch.com -->
    <title>Icons/Menu/menu-hamburger</title>
    <desc>Created with Sketch.</desc>
    <g id="Icons/Menu/menu-hamburger" stroke="none" stroke-width="1" fill="none" fill-rule="evenodd">
        <path d="M8.14967823,15.8698933 C9.15831013,15.9962248 11.166942,15.6513738 12.1621255,16.2693742 C12.7135109,16.1976725 13.2615343,16.0918271 13.8129197,16.0747553 C14.1624655,16.0835128 15.5089514,16.143308 15.8417243,16.2523023 C16.0333643,16.3035178 16.1779349,16.5800815 16.1779349,17.0546785 C16.1779349,17.5292754 16.0266401,17.7682811 15.8417243,17.8297397 C15.2044502,18.014348 13.5341832,18.0493747 12.8816163,17.9321707 C12.777391,17.9185132 12.6765278,17.8946127 12.5723025,17.8741265 L12.5723025,17.8741265 L12.5723025,17.860469 C11.7385001,18.0311873 9.90805985,17.7990104 9.08098169,17.6419495 C8.6448279,17.5390417 8.28430645,17.2288522 8.11269506,16.8088441 C8.01131322,16.6141368 7.9769912,16.3905807 8.01519398,16.1737719 C8.03536661,16.0474403 8.10597085,15.8698933 8.14967823,15.8698933 Z M8.23036878,11.4555267 C9.68616083,11.5784439 12.1587634,11.2370072 13.601107,11.8345214 C14.4046504,11.7628197 16.2081939,11.6569743 17.0117373,11.6399025 C17.5161421,11.6482741 18.0184649,11.7077512 18.5112367,11.8174495 C18.7902915,11.868665 18.9785695,12.1452287 18.9987421,12.6198257 C19.0189148,13.0944227 18.7936536,13.3334283 18.5246851,13.3948869 C17.5820141,13.5799078 15.6166929,13.6144669 14.6635326,13.4973179 C14.5155999,13.4836604 14.3643052,13.4597599 14.2130104,13.4392737 C12.9959279,13.609992 10.7855696,13.3778151 9.57521132,13.227583 C9.013567,13.1616755 8.50493551,12.8594329 8.17321297,12.3944775 C8.02976431,12.217443 7.97738251,11.9818607 8.03200451,11.7594053 C8.06226347,11.6330738 8.16648876,11.4555267 8.23036878,11.4555267 Z M8.22700668,7.0001877 C9.68616083,7.12651926 12.1587634,6.78166824 13.5977449,7.37918239 C14.4012883,7.31089506 16.2048317,7.2050497 17.0083752,7.1845635 C17.51278,7.19293507 18.0151028,7.2524122 18.5078746,7.36211056 C18.7869294,7.41332606 18.9785695,7.73086215 18.99538,8.16448671 C19.0121905,8.59811127 18.7902915,8.87808933 18.521323,8.93954792 C17.578652,9.12456881 15.6133308,9.1591279 14.6601705,9.04197892 C14.5088757,9.04197892 14.3575809,9.00442089 14.2096483,8.98393469 C12.9925658,9.15465302 10.7822075,8.92589046 9.57184921,8.77224396 C9.01020489,8.70633652 8.5015734,8.40409389 8.16985087,7.93913851 C8.0264022,7.76210402 7.9740204,7.52652166 8.0286424,7.30406633 C8.06226347,7.1743204 8.16312666,6.99335897 8.22700668,7.0001877 Z" id="Combined-Shape" fill="#000000" fill-rule="nonzero"></path>
    </g>
</svg>